Verilog FIles/cpu_wavedata.vcd
$date
	Tue Jun 23 07:26:33 2020
$end
$version
	Icarus Verilog
$end
$timescale
	100ps
$end
$scope module testbench $end
$scope module mycpu $end
$var wire 1 ! CLK $end
$var wire 1 " ICACHE_BUSY $end
$var wire 32 # INST [31:0] $end
$var wire 1 $ RESET $end
$var wire 32 % pc_branch_out [31:0] $end
$var wire 8 & output_num [7:0] $end
$var wire 8 ' output_mux_3 [7:0] $end
$var wire 8 ( output_mux_2 [7:0] $end
$var wire 8 ) output_mux_1 [7:0] $end
$var wire 32 * outextend [31:0] $end
$var wire 8 + dataout [7:0] $end
$var wire 1 , busywait $end
$var wire 8 - addval [7:0] $end
$var wire 1 . ZERO $end
$var wire 8 / RESULT [7:0] $end
$var wire 32 0 PC_OUT [31:0] $end
$var wire 8 1 Data2 [7:0] $end
$var wire 8 2 Data1 [7:0] $end
$var reg 3 3 ALU_OP [2:0] $end
$var reg 3 4 INADDRESS [2:0] $end
$var reg 3 5 OUT1ADDRESS [2:0] $end
$var reg 3 6 OUT2ADDRESS [2:0] $end
$var reg 32 7 PC [31:0] $end
$var reg 1 8 Read $end
$var reg 1 9 WRITE $end
$var reg 1 : Write_mem $end
$var reg 1 ; select_mux_1 $end
$var reg 1 < select_mux_2 $end
$var reg 1 = select_mux_3 $end
$scope module myDcache $end
$var wire 1 ! CLK $end
$var wire 1 $ RESET $end
$var wire 1 > dirty $end
$var wire 1 ? hit $end
$var wire 1 8 readEn $end
$var wire 3 @ tag [2:0] $end
$var wire 1 A valid $end
$var wire 1 : writeEn $end
$var wire 1 B tagCheck $end
$var wire 8 C dataOut [7:0] $end
$var wire 8 D dataIn [7:0] $end
$var wire 32 E dataFromM [31:0] $end
$var wire 1 F busyMem $end
$var wire 8 G address [7:0] $end
$var reg 1 , busy $end
$var reg 32 H data [31:0] $end
$var reg 6 I dataMaddress [5:0] $end
$var reg 32 J dataToM [31:0] $end
$var reg 3 K next_state [2:0] $end
$var reg 1 L readM $end
$var reg 3 M state [2:0] $end
$var reg 1 N writeM $end
$var integer 32 O i [31:0] $end
$scope module myMem2 $end
$var wire 6 P address [5:0] $end
$var wire 1 ! clock $end
$var wire 1 L read $end
$var wire 1 $ reset $end
$var wire 1 N write $end
$var wire 32 Q writedata [31:0] $end
$var reg 1 F busywait $end
$var reg 1 R readaccess $end
$var reg 32 S readdata [31:0] $end
$var reg 1 T writeaccess $end
$var integer 32 U i [31:0] $end
$upscope $end
$upscope $end
$scope module myadder $end
$var wire 32 V PC [31:0] $end
$var wire 1 , busywait $end
$var wire 32 W pc_branch_out [31:0] $end
$var wire 1 . ZERO $end
$var reg 32 X PC_OUT [31:0] $end
$upscope $end
$scope module myalu $end
$var wire 3 Y ALU_OP [2:0] $end
$var wire 8 Z Data2 [7:0] $end
$var wire 8 [ Data1 [7:0] $end
$var reg 1 \ Flag $end
$var reg 8 ] Result [7:0] $end
$var reg 1 . ZERO $end
$upscope $end
$scope module mybranch_add $end
$var wire 32 ^ outextend [31:0] $end
$var reg 32 _ pc_branch_out [31:0] $end
$upscope $end
$scope module mybranch_mux $end
$var wire 1 . ZERO $end
$var wire 8 ` val [7:0] $end
$var reg 8 a addval [7:0] $end
$upscope $end
$scope module mymux1 $end
$var wire 1 ; select $end
$var wire 8 b input_mux_2 [7:0] $end
$var wire 8 c input_mux_1 [7:0] $end
$var reg 8 d output_mux [7:0] $end
$upscope $end
$scope module mymux2 $end
$var wire 8 e input_mux_1 [7:0] $end
$var wire 8 f input_mux_2 [7:0] $end
$var wire 1 < select $end
$var reg 8 g output_mux [7:0] $end
$upscope $end
$scope module mymux3 $end
$var wire 8 h input_mux_1 [7:0] $end
$var wire 8 i input_mux_2 [7:0] $end
$var wire 1 = select $end
$var reg 8 j output_mux [7:0] $end
$upscope $end
$scope module myreg $end
$var wire 1 ! CLK $end
$var wire 8 k IN [7:0] $end
$var wire 3 l INADDRESS [2:0] $end
$var wire 3 m OUT1ADDRESS [2:0] $end
$var wire 3 n OUT2ADDRESS [2:0] $end
$var wire 1 $ RESET $end
$var wire 1 9 WRITE $end
$var wire 1 , busywait $end
$var reg 8 o OUT1 [7:0] $end
$var reg 8 p OUT2 [7:0] $end
$upscope $end
$scope module mysignextend $end
$var wire 8 q addval [7:0] $end
$var reg 32 r outextend [31:0] $end
$upscope $end
$scope module mytwos $end
$var wire 8 s input_num [7:0] $end
$var reg 8 t output_num [7:0] $end
$upscope $end
$upscope $end
$upscope $end
$scope module testbench $end
$scope module myins_cache $end
$var wire 1 ! CLK $end
$var wire 32 u PC [31:0] $end
$var wire 1 $ RESET $end
$var wire 1 v hit $end
$var wire 3 w tag [2:0] $end
$var wire 1 x valid $end
$var wire 1 y tagCheck $end
$var wire 32 z instruction [31:0] $end
$var wire 3 { index [2:0] $end
$var wire 128 | imem_readdata [127:0] $end
$var wire 1 } imem_busy $end
$var reg 11 ~ address [10:0] $end
$var reg 1 !" icache_busy $end
$var reg 128 "" icache_data [127:0] $end
$var reg 6 #" imem_address [5:0] $end
$var reg 1 $" imem_read $end
$var reg 3 %" next_state [2:0] $end
$var reg 3 &" state [2:0] $end
$var reg 8 '" valid_array [7:0] $end
$var integer 32 (" i [31:0] $end
$scope module my_inst_data_memory $end
$var wire 6 )" address [5:0] $end
$var wire 1 ! clock $end
$var wire 1 $" read $end
$var reg 1 } busywait $end
$var reg 1 *" readaccess $end
$var reg 128 +" readdata [127:0] $end
$upscope $end
$upscope $end
$upscope $end
$scope module testbench $end
$scope module mycpu $end
$scope module myreg $end
$var reg 8 ," \register[0] [7:0] $end
$upscope $end
$upscope $end
$upscope $end
$scope module testbench $end
$scope module mycpu $end
$scope module myreg $end
$var reg 8 -" \register[1] [7:0] $end
$upscope $end
$upscope $end
$upscope $end
$scope module testbench $end
$scope module mycpu $end
$scope module myreg $end
$var reg 8 ." \register[2] [7:0] $end
$upscope $end
$upscope $end
$upscope $end
$scope module testbench $end
$scope module mycpu $end
$scope module myreg $end
$var reg 8 /" \register[3] [7:0] $end
$upscope $end
$upscope $end
$upscope $end
$scope module testbench $end
$scope module mycpu $end
$scope module myreg $end
$var reg 8 0" \register[4] [7:0] $end
$upscope $end
$upscope $end
$upscope $end
$scope module testbench $end
$scope module mycpu $end
$scope module myreg $end
$var reg 8 1" \register[5] [7:0] $end
$upscope $end
$upscope $end
$upscope $end
$scope module testbench $end
$scope module mycpu $end
$scope module myreg $end
$var reg 8 2" \register[6] [7:0] $end
$upscope $end
$upscope $end
$upscope $end
$scope module testbench $end
$scope module mycpu $end
$scope module myreg $end
$var reg 8 3" \register[7] [7:0] $end
$upscope $end
$upscope $end
$upscope $end
$enddefinitions $end
#0
$dumpvars
bx 3"
bx 2"
bx 1"
bx 0"
bx /"
bx ."
bx -"
bx ,"
bx +"
0*"
bx )"
b1000 ("
b0 '"
b0 &"
b0 %"
0$"
bx #"
bx ""
x!"
bx ~
0}
bx |
bx {
bx z
xy
xx
bx w
xv
bx u
bx t
bx s
bx r
bx q
bx p
bx o
bx n
bx m
bx l
bx k
bx j
bx i
bx h
bx g
bx f
bx e
bx d
bx c
bx b
bx a
bx `
bx _
bx ^
bx ]
x\
bx [
bx Z
bx Y
bx X
bx W
bx V
b100000000 U
0T
bx S
0R
bx Q
bx P
b1000 O
0N
b0 M
0L
b0 K
bx J
bx I
bx H
bx G
0F
bx E
bx D
bx C
xB
xA
bx @
x?
x>
x=
x<
x;
x:
x9
x8
bx 7
bx 6
bx 5
bx 4
bx 3
bx 2
bx 1
bx 0
bx /
x.
bx -
0,
bx +
bx *
bx )
bx (
bx '
bx &
bx %
1$
bx #
x"
1!
$end
#10
0"
b111 {
0!"
b11111111100 ~
b11111111111111111111111111111100 u
b11111111111111111111111111111100 7
b11111111111111111111111111111100 V
#20
0v
b1000 O
b0 ""
b0 w
0x
b0 3"
b0 2"
b0 1"
b0 0"
b0 /"
b0 ."
b0 -"
b0 ,"
0$
#29
0y
#30
b0 %
b0 W
b0 _
b0 *
b0 ^
b0 r
b0 -
b0 a
b0 q
b0 6
b0 n
b0 5
b0 m
b0 4
b0 l
0:
08
b0 e
b0 `
b0 #
b0 z
#40
b0 (
b0 [
b0 g
b0 3
b0 Y
1=
0<
0;
19
0!
#50
b0 0
b0 X
b0 '
b0 j
b0 k
b0 )
b0 d
b0 f
b0 &
b0 b
b0 t
0.
b0 /
b0 G
b0 ]
b0 i
b0 1
b0 c
b0 p
b0 s
b0 2
b0 D
b0 Z
b0 o
#60
b0 +
b0 C
b0 h
0?
b0 @
0>
0A
b0 H
#69
1B
#80
1!
#90
1"
b1 %"
b0 {
1!"
b0 ~
b0 u
b0 7
b0 V
b0 ,"
#99
1y
#120
0!
#140
b100 0
b100 X
#160
1*"
1}
b0 #"
b0 )"
1$"
b1 %"
b1 &"
1!
#170
b0 ,"
#200
0!
#240
1!
#250
b0 ,"
#280
0!
#320
1!
#330
b0 ,"
#360
0!
#400
1!
#410
b0 ,"
#440
0!
#480
1!
#490
b0 ,"
#520
0!
#560
1!
#570
b0 ,"
#600
0!
#640
1!
bx00000101 |
bx00000101 +"
#650
b0 ,"
#680
0!
#720
1!
#730
b0 ,"
#760
0!
#800
1!
#810
b0 ,"
#840
0!
#880
1!
#890
b0 ,"
#920
0!
#960
1!
#970
b0 ,"
#1000
0!
#1040
1!
bx0000000000000101 |
bx0000000000000101 +"
#1050
b0 ,"
#1080
0!
#1120
1!
#1130
b0 ,"
#1160
0!
#1200
1!
#1210
b0 ,"
#1240
0!
#1280
1!
#1290
b0 ,"
#1320
0!
#1360
1!
#1370
b0 ,"
#1400
0!
#1440
1!
bx000000100000000000000101 |
bx000000100000000000000101 +"
#1450
b0 ,"
#1480
0!
#1520
1!
#1530
b0 ,"
#1560
0!
#1600
1!
#1610
b0 ,"
#1640
0!
#1680
1!
#1690
b0 ,"
#1720
0!
#1760
1!
#1770
b0 ,"
#1800
0!
#1840
1!
bx00000000000000100000000000000101 |
bx00000000000000100000000000000101 +"
#1850
b0 ,"
#1880
0!
#1920
1!
#1930
b0 ,"
#1960
0!
#2000
1!
#2010
b0 ,"
#2040
0!
#2080
1!
#2090
b0 ,"
#2120
0!
#2160
1!
#2170
b0 ,"
#2200
0!
#2240
1!
bx1010110100000000000000100000000000000101 |
bx1010110100000000000000100000000000000101 +"
#2250
b0 ,"
#2280
0!
#2320
1!
#2330
b0 ,"
#2360
0!
#2400
1!
#2410
b0 ,"
#2440
0!
#2480
1!
#2490
b0 ,"
#2520
0!
#2560
1!
#2570
b0 ,"
#2600
0!
#2640
1!
bx000000001010110100000000000000100000000000000101 |
bx000000001010110100000000000000100000000000000101 +"
#2650
b0 ,"
#2680
0!
#2720
1!
#2730
b0 ,"
#2760
0!
#2800
1!
#2810
b0 ,"
#2840
0!
#2880
1!
#2890
b0 ,"
#2920
0!
#2960
1!
#2970
b0 ,"
#3000
0!
#3040
1!
bx00000011000000001010110100000000000000100000000000000101 |
bx00000011000000001010110100000000000000100000000000000101 +"
#3050
b0 ,"
#3080
0!
#3120
1!
#3130
b0 ,"
#3160
0!
#3200
1!
#3210
b0 ,"
#3240
0!
#3280
1!
#3290
b0 ,"
#3320
0!
#3360
1!
#3370
b0 ,"
#3400
0!
#3440
1!
bx0000000000000011000000001010110100000000000000100000000000000101 |
bx0000000000000011000000001010110100000000000000100000000000000101 +"
#3450
b0 ,"
#3480
0!
#3520
1!
#3530
b0 ,"
#3560
0!
#3600
1!
#3610
b0 ,"
#3640
0!
#3680
1!
#3690
b0 ,"
#3720
0!
#3760
1!
#3770
b0 ,"
#3800
0!
#3840
1!
bx100011000000000000000011000000001010110100000000000000100000000000000101 |
bx100011000000000000000011000000001010110100000000000000100000000000000101 +"
#3850
b0 ,"
#3880
0!
#3920
1!
#3930
b0 ,"
#3960
0!
#4000
1!
#4010
b0 ,"
#4040
0!
#4080
1!
#4090
b0 ,"
#4120
0!
#4160
1!
#4170
b0 ,"
#4200
0!
#4240
1!
bx00000010100011000000000000000011000000001010110100000000000000100000000000000101 |
bx00000010100011000000000000000011000000001010110100000000000000100000000000000101 +"
#4250
b0 ,"
#4280
0!
#4320
1!
#4330
b0 ,"
#4360
0!
#4400
1!
#4410
b0 ,"
#4440
0!
#4480
1!
#4490
b0 ,"
#4520
0!
#4560
1!
#4570
b0 ,"
#4600
0!
#4640
1!
bx0000000000000010100011000000000000000011000000001010110100000000000000100000000000000101 |
bx0000000000000010100011000000000000000011000000001010110100000000000000100000000000000101 +"
#4650
b0 ,"
#4680
0!
#4720
1!
#4730
b0 ,"
#4760
0!
#4800
1!
#4810
b0 ,"
#4840
0!
#4880
1!
#4890
b0 ,"
#4920
0!
#4960
1!
#4970
b0 ,"
#5000
0!
#5040
1!
bx000010110000000000000010100011000000000000000011000000001010110100000000000000100000000000000101 |
bx000010110000000000000010100011000000000000000011000000001010110100000000000000100000000000000101 +"
#5050
b0 ,"
#5080
0!
#5120
1!
#5130
b0 ,"
#5160
0!
#5200
1!
#5210
b0 ,"
#5240
0!
#5280
1!
#5290
b0 ,"
#5320
0!
#5360
1!
#5370
b0 ,"
#5400
0!
#5440
1!
bx10001100000010110000000000000010100011000000000000000011000000001010110100000000000000100000000000000101 |
bx10001100000010110000000000000010100011000000000000000011000000001010110100000000000000100000000000000101 +"
#5450
b0 ,"
#5480
0!
#5520
1!
#5530
b0 ,"
#5560
0!
#5600
1!
#5610
b0 ,"
#5640
0!
#5680
1!
#5690
b0 ,"
#5720
0!
#5760
1!
#5770
b0 ,"
#5800
0!
#5840
1!
bx0000000010001100000010110000000000000010100011000000000000000011000000001010110100000000000000100000000000000101 |
bx0000000010001100000010110000000000000010100011000000000000000011000000001010110100000000000000100000000000000101 +"
#5850
b0 ,"
#5880
0!
#5920
1!
#5930
b0 ,"
#5960
0!
#6000
1!
#6010
b0 ,"
#6040
0!
#6080
1!
#6090
b0 ,"
#6120
0!
#6160
1!
#6170
b0 ,"
#6200
0!
#6240
1!
bx000001000000000010001100000010110000000000000010100011000000000000000011000000001010110100000000000000100000000000000101 |
bx000001000000000010001100000010110000000000000010100011000000000000000011000000001010110100000000000000100000000000000101 +"
#6250
b0 ,"
#6280
0!
#6320
1!
#6330
b0 ,"
#6360
0!
#6400
1!
#6410
b0 ,"
#6440
0!
#6480
1!
#6490
b0 ,"
#6520
0!
#6560
1!
#6570
b0 ,"
#6600
0!
#6640
bx #"
bx )"
0$"
b10 &"
b0 %"
1!
0*"
0}
b1001000001000000000010001100000010110000000000000010100011000000000000000011000000001010110100000000000000100000000000000101 |
b1001000001000000000010001100000010110000000000000010100011000000000000000011000000001010110100000000000000100000000000000101 +"
#6650
b1 '"
b0 ,"
#6660
1v
b1001000001000000000010001100000010110000000000000010100011000000000000000011000000001010110100000000000000100000000000000101 ""
1x
#6670
b101 (
b101 [
b101 g
b101 6
b101 n
b10 4
b10 l
b101 e
b10 `
b100000000000000101 #
b100000000000000101 z
#6680
b101 '
b101 j
b101 k
b101 /
b101 G
b101 ]
b101 i
0!
#6720
0"
0!"
b0 &"
1!
#6730
1"
1!"
b100 ~
b100 u
b101 ."
b100 7
b100 V
#6740
b10101101 (
b10101101 [
b10101101 g
b11 4
b11 l
b10101101 e
b11 `
b110000000010101101 #
b110000000010101101 z
#6750
b10101101 '
b10101101 j
b10101101 k
b10101101 /
b10101101 G
b10101101 ]
b10101101 i
#6759
0B
#6760
0!
#6780
b1000 0
b1000 X
#6800
0"
0!"
1!
#6810
1"
1!"
b1000 ~
b1000 u
b1000 7
b1000 V
b10101101 /"
#6820
b10001100 (
b10001100 [
b10001100 g
b100 6
b100 n
b10 5
b10 m
b0 4
b0 l
b10001100 e
b0 `
b1011000000000000001010001100 #
b1011000000000000001010001100 z
#6830
b1 K
1,
b0 '
b0 j
b0 k
b10001100 /
b10001100 G
b10001100 ]
b10001100 i
b110 3
b110 Y
1:
0=
09
#6840
b101 2
b101 D
b101 Z
b101 o
0!
#6860
b1100 0
b1100 X
#6880
1R
1F
0"
b100011 I
b100011 P
1L
b1 K
0!"
b1 M
1!
#6920
0!
#6960
1!
#7000
0!
#7040
1!
#7080
0!
#7120
1!
#7160
0!
#7200
1!
#7240
0!
#7280
1!
#7320
0!
#7360
1!
bx00000000 E
bx00000000 S
#7400
0!
#7440
1!
#7480
0!
#7520
1!
#7560
0!
#7600
1!
#7640
0!
#7680
1!
#7720
0!
#7760
1!
bx0000000000000000 E
bx0000000000000000 S
#7800
0!
#7840
1!
#7880
0!
#7920
1!
#7960
0!
#8000
1!
#8040
0!
#8080
1!
#8120
0!
#8160
1!
bx000000000000000000000000 E
bx000000000000000000000000 S
#8200
0!
#8240
1!
#8280
0!
#8320
1!
#8360
0!
#8400
1!
#8440
0!
#8480
1!
#8520
0!
#8560
bx I
bx P
0L
b11 M
b0 K
1!
0R
0F
b0 E
b0 S
#8580
1A
b100 @
#8589
1?
1B
#8600
0!
#8640
0,
b0 M
1!
#8650
1"
1!"
b1100 ~
b1100 u
b1100 7
b1100 V
#8660
b101 '
b101 j
b101 k
b101 +
b101 C
b101 h
b0 5
b0 m
b100 4
b100 l
0:
b100 `
b1001000001000000000010001100 #
b1001000001000000000010001100 z
b101 H
1>
#8670
1,
18
19
#8680
b0 2
b0 D
b0 Z
b0 o
0!
#8690
b10000 0
b10000 X
#8720
0"
0!"
0,
1!
#8730
1"
b1 {
1!"
b10000 ~
b10000 u
b10000 7
b10000 V
b101 0"
#8740
b101 (
b101 [
b101 g
b101 6
b101 n
b10 4
b10 l
08
b101 e
b10 `
b1 %"
b100000000000000101 #
0v
b100000000000000101 z
b0 ""
0x
#8750
b0 (
b0 [
b0 g
b0 6
b0 n
b0 4
b0 l
b0 e
b0 `
b0 #
b101 /
b101 G
b101 ]
b101 i
b0 3
b0 Y
1=
b0 z
#8759
0?
0B
#8760
b0 +
b0 C
b0 h
b0 '
b0 j
b0 k
b0 /
b0 G
b0 ]
b0 i
b0 @
0>
0A
b0 H
0!
#8769
1B
#8770
b10100 0
b10100 X
#8800
1*"
1}
b1 #"
b1 )"
1$"
b1 %"
b1 &"
1!
#8810
b0 ,"
#8840
0!
#8880
1!
#8890
b0 ,"
#8920
0!
#8960
1!
#8970
b0 ,"
#9000
0!
#9040
1!
#9050
b0 ,"
#9080
0!
#9120
1!
#9130
b0 ,"
#9160
0!
#9200
1!
#9210
b0 ,"
#9240
0!
#9280
1!
b1001000001000000000010001100000010110000000000000010100011000000000000000011000000001010110100000000000000100000000000000011 |
b1001000001000000000010001100000010110000000000000010100011000000000000000011000000001010110100000000000000100000000000000011 +"
#9290
b0 ,"
#9320
0!
#9360
1!
#9370
b0 ,"
#9400
0!
#9440
1!
#9450
b0 ,"
#9480
0!
#9520
1!
#9530
b0 ,"
#9560
0!
#9600
1!
#9610
b0 ,"
#9640
0!
#9680
1!
b1001000001000000000010001100000010110000000000000010100011000000000000000011000000001010110100000000000000100000001000000011 |
b1001000001000000000010001100000010110000000000000010100011000000000000000011000000001010110100000000000000100000001000000011 +"
#9690
b0 ,"
#9720
0!
#9760
1!
#9770
b0 ,"
#9800
0!
#9840
1!
#9850
b0 ,"
#9880
0!
#9920
1!
#9930
b0 ,"
#9960
0!
#10000
1!
#10010
b0 ,"
#10040
0!
#10080
1!
b1001000001000000000010001100000010110000000000000010100011000000000000000011000000001010110100000000000000000000001000000011 |
b1001000001000000000010001100000010110000000000000010100011000000000000000011000000001010110100000000000000000000001000000011 +"
#10090
b0 ,"
#10120
0!
#10160
1!
#10170
b0 ,"
#10200
0!
#10240
1!
#10250
b0 ,"
#10280
0!
#10320
1!
#10330
b0 ,"
#10360
0!
#10400
1!
#10410
b0 ,"
#10440
0!
#10480
1!
b1001000001000000000010001100000010110000000000000010100011000000000000000011000000001010110100001010000000000000001000000011 |
b1001000001000000000010001100000010110000000000000010100011000000000000000011000000001010110100001010000000000000001000000011 +"
#10490
b0 ,"
#10520
0!
#10560
1!
#10570
b0 ,"
#10600
0!
#10640
1!
#10650
b0 ,"
#10680
0!
#10720
1!
#10730
b0 ,"
#10760
0!
#10800
1!
#10810
b0 ,"
#10840
0!
#10880
1!
b1001000001000000000010001100000010110000000000000010100011000000000000000011000000000000010000001010000000000000001000000011 |
b1001000001000000000010001100000010110000000000000010100011000000000000000011000000000000010000001010000000000000001000000011 +"
#10890
b0 ,"
#10920
0!
#10960
1!
#10970
b0 ,"
#11000
0!
#11040
1!
#11050
b0 ,"
#11080
0!
#11120
1!
#11130
b0 ,"
#11160
0!
#11200
1!
#11210
b0 ,"
#11240
0!
#11280
1!
b1001000001000000000010001100000010110000000000000010100011000000000000000011000001010000010000001010000000000000001000000011 |
b1001000001000000000010001100000010110000000000000010100011000000000000000011000001010000010000001010000000000000001000000011 +"
#11290
b0 ,"
#11320
0!
#11360
1!
#11370
b0 ,"
#11400
0!
#11440
1!
#11450
b0 ,"
#11480
0!
#11520
1!
#11530
b0 ,"
#11560
0!
#11600
1!
#11610
b0 ,"
#11640
0!
#11680
1!
b1001000001000000000010001100000010110000000000000010100011000000000000000000000001010000010000001010000000000000001000000011 |
b1001000001000000000010001100000010110000000000000010100011000000000000000000000001010000010000001010000000000000001000000011 +"
#11690
b0 ,"
#11720
0!
#11760
1!
#11770
b0 ,"
#11800
0!
#11840
1!
#11850
b0 ,"
#11880
0!
#11920
1!
#11930
b0 ,"
#11960
0!
#12000
1!
#12010
b0 ,"
#12040
0!
#12080
1!
b1001000001000000000010001100000010110000000000000010100011000000101000000000000001010000010000001010000000000000001000000011 |
b1001000001000000000010001100000010110000000000000010100011000000101000000000000001010000010000001010000000000000001000000011 +"
#12090
b0 ,"
#12120
0!
#12160
1!
#12170
b0 ,"
#12200
0!
#12240
1!
#12250
b0 ,"
#12280
0!
#12320
1!
#12330
b0 ,"
#12360
0!
#12400
1!
#12410
b0 ,"
#12440
0!
#12480
1!
b1001000001000000000010001100000010110000000000000010000000010000101000000000000001010000010000001010000000000000001000000011 |
b1001000001000000000010001100000010110000000000000010000000010000101000000000000001010000010000001010000000000000001000000011 +"
#12490
b0 ,"
#12520
0!
#12560
1!
#12570
b0 ,"
#12600
0!
#12640
1!
#12650
b0 ,"
#12680
0!
#12720
1!
#12730
b0 ,"
#12760
0!
#12800
1!
#12810
b0 ,"
#12840
0!
#12880
1!
b1001000001000000000010001100000010110000000000000011000000010000101000000000000001010000010000001010000000000000001000000011 |
b1001000001000000000010001100000010110000000000000011000000010000101000000000000001010000010000001010000000000000001000000011 +"
#12890
b0 ,"
#12920
0!
#12960
1!
#12970
b0 ,"
#13000
0!
#13040
1!
#13050
b0 ,"
#13080
0!
#13120
1!
#13130
b0 ,"
#13160
0!
#13200
1!
#13210
b0 ,"
#13240
0!
#13280
1!
b1001000001000000000010001100000010110000011000000011000000010000101000000000000001010000010000001010000000000000001000000011 |
b1001000001000000000010001100000010110000011000000011000000010000101000000000000001010000010000001010000000000000001000000011 +"
#13290
b0 ,"
#13320
0!
#13360
1!
#13370
b0 ,"
#13400
0!
#13440
1!
#13450
b0 ,"
#13480
0!
#13520
1!
#13530
b0 ,"
#13560
0!
#13600
1!
#13610
b0 ,"
#13640
0!
#13680
1!
b1001000001000000000010001100000001000000011000000011000000010000101000000000000001010000010000001010000000000000001000000011 |
b1001000001000000000010001100000001000000011000000011000000010000101000000000000001010000010000001010000000000000001000000011 +"
#13690
b0 ,"
#13720
0!
#13760
1!
#13770
b0 ,"
#13800
0!
#13840
1!
#13850
b0 ,"
#13880
0!
#13920
1!
#13930
b0 ,"
#13960
0!
#14000
1!
#14010
b0 ,"
#14040
0!
#14080
1!
b1001000001000000000000000011000001000000011000000011000000010000101000000000000001010000010000001010000000000000001000000011 |
b1001000001000000000000000011000001000000011000000011000000010000101000000000000001010000010000001010000000000000001000000011 +"
#14090
b0 ,"
#14120
0!
#14160
1!
#14170
b0 ,"
#14200
0!
#14240
1!
#14250
b0 ,"
#14280
0!
#14320
1!
#14330
b0 ,"
#14360
0!
#14400
1!
#14410
b0 ,"
#14440
0!
#14480
1!
#14490
b0 ,"
#14520
0!
#14560
1!
#14570
b0 ,"
#14600
0!
#14640
1!
#14650
b0 ,"
#14680
0!
#14720
1!
#14730
b0 ,"
#14760
0!
#14800
1!
#14810
b0 ,"
#14840
0!
#14880
1!
#14890
b0 ,"
#14920
0!
#14960
1!
#14970
b0 ,"
#15000
0!
#15040
1!
#15050
b0 ,"
#15080
0!
#15120
1!
#15130
b0 ,"
#15160
0!
#15200
1!
#15210
b0 ,"
#15240
0!
#15280
bx #"
bx )"
0$"
b10 &"
b0 %"
1!
0*"
0}
b1000000001000000000000000011000001000000011000000011000000010000101000000000000001010000010000001010000000000000001000000011 |
b1000000001000000000000000011000001000000011000000011000000010000101000000000000001010000010000001010000000000000001000000011 +"
#15290
b11 '"
b0 ,"
#15300
1v
b1000000001000000000000000011000001000000011000000011000000010000101000000000000001010000010000001010000000000000001000000011 ""
1x
#15310
b11 (
b11 [
b11 g
b11 6
b11 n
b10 5
b10 m
b11 e
b1010000000000000001000000011 #
b1010000000000000001000000011 z
#15320
b1 K
1,
b0 (
b0 [
b0 g
b11 /
b11 G
b11 ]
b11 i
b110 3
b110 Y
1:
0=
1<
09
0!
#15330
b10101101 (
b10101101 [
b10101101 g
b10101101 )
b10101101 d
b10101101 f
b1010011 &
b1010011 b
b1010011 t
b0 /
b0 G
b0 ]
b0 i
b10101101 1
b10101101 c
b10101101 p
b10101101 s
b101 2
b101 D
b101 Z
b101 o
#15340
b10101101 /
b10101101 G
b10101101 ]
b10101101 i
#15349
0B
#15350
b101 '
b101 j
b101 k
b101 +
b101 C
b101 h
b10 K
b100 @
1>
1A
b101 H
#15360
1T
1F
0"
b101 J
b101 Q
b100011 I
b100011 P
1N
b10 K
0!"
b0 &"
b10 M
1!
